6
terachem gradient in au, energy -77.6776920905, grad_rms 0.081776, grad_max 0.150163 on atom 2
 C       0.1243062745      -0.0020807288      0.0446080151
 C      -0.1413093216       0.0018674840     -0.0507641075
 H       0.0050360015       0.0000807159      0.0006328217
 H       0.0034155450       0.0004386735      0.0022168706
 H       0.0030531266       0.0043216531      0.0024105149
 H       0.0054983741      -0.0046277978      0.0008958853
