Ground state energy (a.u.):
	 -77.6668117468
Center of Mass (Angs):
	CMx	CMy	CMz
	   0.9817310079	  -0.0588664122	  -0.2576103468
Ground state dipole moment (Debye):
	Dx	Dy	Dz
	  -0.0136019750	  -0.0111710643	  -0.0570806686
